30819f300d06092a864886f70d010101050003818d003081893032301006
072a8648ce3d02002EC311215SHA512withECDSA106052b81040006031e0
00443011ac0a7d3a098d1cbbe3afc98bb2a45d007a4ff86b0b78f257113G
02818100938ae36db7ec6ef5549da7b9babd9d154cad9df0b14cf21e6336
eb6aac4b34572c3a1b77aa21d21382624e40247acdcc0451bbafb80c9ba8
a3a0dd98c5c6350c81aa3ce59fd7b97fed2c40255b309774548a278ddb78
0df2e33964ba912ee45903RSA4102413SHA512withRSA058b52030bb2977
063b7d9a1148c2fbd007df3f99749c0086727bf67f06468bb0203010001